Removed Pin From Net: NetName=CSI0_CLK_N Pin=J1-25
Removed Pin From Net: NetName=CSI0_CLK_P Pin=J1-26
Removed Pin From Net: NetName=CSI0_D0_N Pin=J1-28
Removed Pin From Net: NetName=CSI0_D0_P Pin=J1-29
Added Pin To Net: NetName=CSI0_D0_N Pin=J1-25
Added Pin To Net: NetName=CSI0_D0_P Pin=J1-26
Added Pin To Net: NetName=CSI0_CLK_N Pin=J1-28
Added Pin To Net: NetName=CSI0_CLK_P Pin=J1-29
